{"page":1,"total_results":318157,"total_pages":15908,"results":[{"vote_count":543,"id":324852,"video":false,"vote_average":6.2,"title":"Despicable Me 3","popularity":250.123363,"poster_path":"/5qcUGqWoWhEsoQwNUrtf3y3fcWn.jpg","original_language":"en","original_title":"Despicable Me 3","genre_ids":[878,12,16,35,10751],"backdrop_path":"/puV2PFq42VQPItaygizgag8jrXa.jpg","adult":false,"overview":"Gru and his wife Lucy must stop former '80s child star Balthazar Bratt from achieving world domination.","release_date":"2017-06-29"},{"vote_count":3950,"id":321612,"video":false,"vote_average":6.8,"title":"Beauty and the Beast","popularity":181.639976,"poster_path":"/tWqifoYuwLETmmasnGHO7xBjEtt.jpg","original_language":"en","original_title":"Beauty and the Beast","genre_ids":[10751,14,10749],"backdrop_path":"/6aUWe0GSl69wMTSWWexsorMIvwU.jpg","adult":false,"overview":"A live-action adaptation of Disney's version of the classic 'Beauty and the Beast' tale of a cursed prince and a beautiful young woman who helps him break the spell.","release_date":"2017-03-16"},{"vote_count":3717,"id":119450,"video":false,"vote_average":7.3,"title":"Dawn of the Planet of the Apes","popularity":172.353863,"poster_path":"/qL0w9X1dVT3dnkZg3SrYtPFUHMs.jpg","original_language":"en","original_title":"Dawn of the Planet of the Apes","genre_ids":[878,28,18,53],"backdrop_path":"/rjUl3pd1LHVOVfG4IGcyA1cId5l.jpg","adult":false,"overview":"A group of scientists in San Francisco struggle to stay alive in the aftermath of a plague that is wiping out humanity, while Caesar tries to maintain dominance over his community of intelligent apes.","release_date":"2014-06-26"},{"vote_count":979,"id":315635,"video":false,"vote_average":7.4,"title":"Spider-Man: Homecoming","popularity":139.045078,"poster_path":"/ApYhuwBWzl29Oxe9JJsgL7qILbD.jpg","original_language":"en","original_title":"Spider-Man: Homecoming","genre_ids":[28,12,878],"backdrop_path":"/fn4n6uOYcB6Uh89nbNPoU2w80RV.jpg","adult":false,"overview":"Following the events of Captain America: Civil War, Peter Parker, with the help of his mentor Tony Stark, tries to balance his life as an ordinary high school student in Queens, New York City, with fighting crime as his superhero alter ego Spider-Man as a new threat, the Vulture, emerges.","release_date":"2017-07-05"},{"vote_count":220,"id":281338,"video":false,"vote_average":6.5,"title":"War for the Planet of the Apes","popularity":103.548822,"poster_path":"/2n4x2FRcmMIsHxcucxvWxb0Yry6.jpg","original_language":"en","original_title":"War for the Planet of the Apes","genre_ids":[28,12,18,878],"backdrop_path":"/w4ZYFLJbiqZyvCcGHgvaHD6lTqQ.jpg","adult":false,"overview":"Caesar and his apes are forced into a deadly conflict with an army of humans led by a ruthless Colonel. After the apes suffer unimaginable losses, Caesar wrestles with his darker instincts and begins his own mythic quest to avenge his kind. As the journey finally brings them face to face, Caesar and the Colonel are pitted against each other in an epic battle that will determine the fate of both their species and the future of the planet.","release_date":"2017-07-11"},{"vote_count":3666,"id":61791,"video":false,"vote_average":7,"title":"Rise of the Planet of the Apes","popularity":97.251095,"poster_path":"/esqXMJv6PiK7GJVRwd2FA3SZUoW.jpg","original_language":"en","original_title":"Rise of the Planet of the Apes","genre_ids":[53,28,18,878],"backdrop_path":"/caIpcr9xhvRcWfOMRDq3F5iIcLB.jpg","adult":false,"overview":"Scientist Will Rodman is determined to find a cure for Alzheimer's, the disease which has slowly consumed his father. Will feels certain he is close to a breakthrough and tests his latest serum on apes, noticing dramatic increases in intelligence and brain activity in the primate subjects – especially Caesar, his pet chimpanzee.","release_date":"2011-08-03"},{"vote_count":4742,"id":263115,"video":false,"vote_average":7.5,"title":"Logan","popularity":62.090488,"poster_path":"/9EXnebqbb7dOhONLPV9Tg2oh2KD.jpg","original_language":"en","original_title":"Logan","genre_ids":[28,18,878],"backdrop_path":"/5pAGnkFYSsFJ99ZxDIYnhQbQFXs.jpg","adult":false,"overview":"In the near future, a weary Logan cares for an ailing Professor X in a hideout on the Mexican border. But Logan's attempts to hide from the world and his legacy are upended when a young mutant arrives, pursued by dark forces.","release_date":"2017-02-28"},{"vote_count":1487,"id":315837,"video":false,"vote_average":5.9,"title":"Ghost in the Shell","popularity":57.365726,"poster_path":"/myRzRzCxdfUWjkJWgpHHZ1oGkJd.jpg","original_language":"en","original_title":"Ghost in the Shell","genre_ids":[28,80,18,9648,878,53],"backdrop_path":"/jGPSVArC0GS2VVc0aGAqGTjfFOG.jpg","adult":false,"overview":"In the near future, Major is the first of her kind: a human saved from a terrible crash, then cyber-enhanced to be a perfect soldier devoted to stopping the world's most dangerous criminals.","release_date":"2017-03-29"},{"vote_count":1150,"id":282035,"video":false,"vote_average":5.2,"title":"The Mummy","popularity":43.501972,"poster_path":"/zxkY8byBnCsXodEYpK8tmwEGXBI.jpg","original_language":"en","original_title":"The Mummy","genre_ids":[28,12,14,27,53],"backdrop_path":"/qedJJ2z9oBYKxxO4Pp8qAkfgPst.jpg","adult":false,"overview":"Though safely entombed in a crypt deep beneath the unforgiving desert, an ancient queen whose destiny was unjustly taken from her is awakened in our current day, bringing with her malevolence grown over millennia, and terrors that defy human comprehension.","release_date":"2017-06-06"},{"vote_count":1294,"id":395992,"video":false,"vote_average":6.2,"title":"Life","popularity":42.999579,"poster_path":"/h2mhfbEBGABSHo2vXG1ECMKAJa7.jpg","original_language":"en","original_title":"Life","genre_ids":[27,878,53],"backdrop_path":"/hES8wGmkxHa54z7hqUMpw5TIs09.jpg","adult":false,"overview":"The six-member crew of the International Space Station is tasked with studying a sample from Mars that may be the first proof of extra-terrestrial life, which proves more intelligent than ever expected.","release_date":"2017-03-23"},{"vote_count":2286,"id":293167,"video":false,"vote_average":6.1,"title":"Kong: Skull Island","popularity":42.881019,"poster_path":"/r2517Vz9EhDhj88qwbDVj8DCRZN.jpg","original_language":"en","original_title":"Kong: Skull Island","genre_ids":[28,12,14],"backdrop_path":"/pGwChWiAY1bdoxL79sXmaFBlYJH.jpg","adult":false,"overview":"Explore the mysterious and dangerous home of the king of the apes as a team of explorers ventures deep inside the treacherous, primordial island.","release_date":"2017-03-08"},{"vote_count":2922,"id":297762,"video":false,"vote_average":7.1,"title":"Wonder Woman","popularity":42.455365,"poster_path":"/imekS7f1OuHyUP2LAiTEM0zBzUz.jpg","original_language":"en","original_title":"Wonder Woman","genre_ids":[28,12,14],"backdrop_path":"/hA5oCgvgCxj5MEWcLpjXXTwEANF.jpg","adult":false,"overview":"An Amazon princess comes to the world of Man to become the greatest of the female superheroes.","release_date":"2017-05-30"},{"vote_count":7821,"id":135397,"video":false,"vote_average":6.5,"title":"Jurassic World","popularity":39.325028,"poster_path":"/jjBgi2r5cRt36xF6iNUEhzscEcb.jpg","original_language":"en","original_title":"Jurassic World","genre_ids":[28,12,878,53],"backdrop_path":"/dkMD5qlogeRMiEixC4YNPUvax2T.jpg","adult":false,"overview":"Twenty-two years after the events of Jurassic Park, Isla Nublar now features a fully functioning dinosaur theme park, Jurassic World, as originally envisioned by John Hammond.","release_date":"2015-06-09"},{"vote_count":4714,"id":245891,"video":false,"vote_average":6.9,"title":"John Wick","popularity":38.236637,"poster_path":"/5vHssUeVe25bMrof1HyaPyWgaP.jpg","original_language":"en","original_title":"John Wick","genre_ids":[28,53],"backdrop_path":"/mFb0ygcue4ITixDkdr7wm1Tdarx.jpg","adult":false,"overview":"Ex-hitman John Wick comes out of retirement to track down the gangsters that took everything from him.","release_date":"2014-10-22"},{"vote_count":8564,"id":76341,"video":false,"vote_average":7.2,"title":"Mad Max: Fury Road","popularity":37.60408,"poster_path":"/kqjL17yufvn9OVLyXYpvtyrFfak.jpg","original_language":"en","original_title":"Mad Max: Fury Road","genre_ids":[28,12,878,53],"backdrop_path":"/phszHPFVhPHhMZgo0fWTKBDQsJA.jpg","adult":false,"overview":"An apocalyptic story set in the furthest reaches of our planet, in a stark desert landscape where humanity is broken, and most everyone is crazed fighting for the necessities of life. Within this world exist two rebels on the run who just might be able to restore order. There's Max, a man of action and a man of few words, who seeks peace of mind following the loss of his wife and child in the aftermath of the chaos. And Furiosa, a woman of action and a woman who believes her path to survival may be achieved if she can make it across the desert back to her childhood homeland.","release_date":"2015-05-13"},{"vote_count":2920,"id":337339,"video":false,"vote_average":6.8,"title":"The Fate of the Furious","popularity":35.989921,"poster_path":"/iNpz2DgTsTMPaDRZq2tnbqjL2vF.jpg","original_language":"en","original_title":"The Fate of the Furious","genre_ids":[28,80,53],"backdrop_path":"/jzdnhRhG0dsuYorwvSqPqqnM1cV.jpg","adult":false,"overview":"When a mysterious woman seduces Dom into the world of crime and a betrayal of those closest to him, the crew face trials that will test them as never before.","release_date":"2017-04-12"},{"vote_count":8475,"id":118340,"video":false,"vote_average":7.8,"title":"Guardians of the Galaxy","popularity":35.6987,"poster_path":"/y31QB9kn3XSudA15tV7UWQ9XLuW.jpg","original_language":"en","original_title":"Guardians of the Galaxy","genre_ids":[28,878,12],"backdrop_path":"/bHarw8xrmQeqf3t8HpuMY7zoK4x.jpg","adult":false,"overview":"Light years from Earth, 26 years after being abducted, Peter Quill finds himself the prime target of a manhunt after discovering an orb wanted by Ronan the Accuser.","release_date":"2014-07-30"},{"vote_count":703,"id":335988,"video":false,"vote_average":6.3,"title":"Transformers: The Last Knight","popularity":35.159564,"poster_path":"/f8Ng1Sgb3VLiSwAvrfKeQPzvlfr.jpg","original_language":"en","original_title":"Transformers: The Last Knight","genre_ids":[28,878,53,12],"backdrop_path":"/Ytv7P13rbwQ3mLpCAY8lBTqI5s.jpg","adult":false,"overview":"Autobots and Decepticons are at war, with humans on the sidelines. Optimus Prime is gone. The key to saving our future lies buried in the secrets of the past, in the hidden history of Transformers on Earth.","release_date":"2017-06-21"},{"vote_count":6160,"id":22,"video":false,"vote_average":7.4,"title":"Pirates of the Caribbean: The Curse of the Black Pearl","popularity":34.663596,"poster_path":"/tkt9xR1kNX5R9rCebASKck44si2.jpg","original_language":"en","original_title":"Pirates of the Caribbean: The Curse of the Black Pearl","genre_ids":[12,14,28],"backdrop_path":"/8AUQ7YlJJA9C8kWk8P4YNHIcFDE.jpg","adult":false,"overview":"Jack Sparrow, a freewheeling 17th-century pirate who roams the Caribbean Sea, butts heads with a rival pirate bent on pillaging the village of Port Royal. When the governor's daughter is kidnapped, Sparrow decides to help the girl's love save her. But their seafaring mission is hardly simple.","release_date":"2003-07-09"},{"vote_count":1667,"id":166426,"video":false,"vote_average":6.5,"title":"Pirates of the Caribbean: Dead Men Tell No Tales","popularity":30.127727,"poster_path":"/xbpSDU3p7YUGlu9Mr6Egg2Vweto.jpg","original_language":"en","original_title":"Pirates of the Caribbean: Dead Men Tell No Tales","genre_ids":[28,12,35,14],"backdrop_path":"/tZvdyLP2F6x2TTuh292ceH87qZT.jpg","adult":false,"overview":"Thrust into an all-new adventure, a down-on-his-luck Capt. Jack Sparrow feels the winds of ill-fortune blowing even more strongly when deadly ghost sailors led by his old nemesis, the evil Capt. Salazar, escape from the Devil's Triangle. Jack's only hope of survival lies in seeking out the legendary Trident of Poseidon, but to find it, he must forge an uneasy alliance with a brilliant and beautiful astronomer and a headstrong young man in the British navy.","release_date":"2017-05-23"}]}